<svg xmlns="http://www.w3.org/2000/svg" viewBox="587 -412.89 221.502 171.556">
  <ellipse cx="697.751" cy="-250.667" rx="110.751" ry="9.333" opacity=".1" fill="#205182"/>
  <path d="M791.165-252.154h-184c-4.418 0-8-3.582-8-8v-124c0-4.418 3.582-8 8-8h184c4.418 0 8 3.582 8 8v124c0 4.42-3.582 8-8 8z" fill="#F4F5F5"/>
  <path d="M791.165-250.154h-184c-5.514 0-10-4.486-10-10v-124c0-5.514 4.486-10 10-10h184c5.514 0 10 4.486 10 10v124c0 5.514-4.486 10-10 10zm-184-140c-3.31 0-6 2.69-6 6v124c0 3.31 2.69 6 6 6h184c3.31 0 6-2.69 6-6v-124c0-3.31-2.69-6-6-6h-184z" fill="#205182"/>
  <path d="M678.165-252.154h-71c-4.418 0-8-3.582-8-8v-124c0-4.418 3.582-8 8-8h71" fill="#3774B1"/>
  <path d="M678.165-250.154h-71c-5.514 0-10-4.486-10-10v-124c0-5.514 4.486-10 10-10h71v4h-71c-3.31 0-6 2.69-6 6v124c0 3.31 2.69 6 6 6h71v4z" fill="#205182"/>
  <path d="M799.165-372.154h-200v-12c0-4.418 3.582-8 8-8h184c4.418 0 8 3.582 8 8v12z" fill="#3774B1"/>
  <path d="M801.165-370.154h-204v-14c0-5.514 4.486-10 10-10h184c5.514 0 10 4.486 10 10v14zm-200-4h196v-10c0-3.31-2.69-6-6-6h-184c-3.31 0-6 2.69-6 6v10z" fill="#205182"/>
  <circle cx="610.165" cy="-382.154" r="1.5" fill="#EF5350"/>
  <circle cx="615.665" cy="-382.154" r="1.5" fill="#FDBC1C"/>
  <circle cx="621.165" cy="-382.154" r="1.5" fill="#52C2C3"/>
  <path opacity=".2" fill="#205182" d="M599.165-376.154h200v12h-200z"/>
  <path d="M623.817-334.67c0-1.92 1.55-3.467 3.465-3.467 1.917 0 3.465 1.55 3.465 3.468 0 1.916-1.55 3.47-3.465 3.47-1.915 0-3.465-1.554-3.465-3.47zm26.23 3.47c1.91 0 3.466-1.554 3.466-3.47 0-1.92-1.554-3.465-3.465-3.467-1.916 0-3.464 1.55-3.464 3.468 0 1.916 1.548 3.47 3.464 3.47zm-11.382-3.164c1.916 0 3.465-1.554 3.465-3.47 0-1.92-1.55-3.467-3.465-3.467-1.915 0-3.465 1.547-3.465 3.467 0 1.915 1.55 3.47 3.465 3.47zm19.575 5.89c-.193-.145-.425-.222-.66-.222-.13 0-.262.024-.387.072-2.346.897-4.73 1.58-6.904 2.085-.445.105-.803.434-.952.83-1.584 4.34-5.63 8.473-9.875 12.802-.17.162-.41.375-.797.375s-.624-.206-.797-.375c-4.245-4.33-8.29-8.447-9.876-12.788-.15-.395-.507-.725-.95-.828-2.176-.507-4.565-1.21-6.908-2.106-.126-.048-.258-.072-.388-.072-.235 0-.462.074-.655.22-.3.23-.457.602-.42.96.36 3.61 1.785 7.137 4.358 10.835 2.42 3.476 5.576 6.694 8.627 9.805 5.62 5.734 10.932 11.15 11.398 17.43.042.565.514 1.005 1.083 1.005h6.604c.297 0 .582-.122.787-.338s.312-.505.297-.802c-.208-4.198-1.788-8.403-4.83-12.852-.638-.932-1.32-1.84-2.035-2.728-.29-.362-.17-.81.053-1.038l.66-.675c3.052-3.113 6.207-6.33 8.627-9.806 2.573-3.698 4-7.206 4.36-10.814.035-.364-.13-.75-.422-.973zm-26.66 26.476c-.157-.163-.387-.33-.772-.33-.493 0-.785.34-.896.51-2.778 4.227-4.213 8.217-4.41 12.227-.015.294.094.588.298.804.205.215.493.338.79.338h6.593c.567 0 1.045-.444 1.087-1.01.144-1.932.745-3.87 1.84-5.905.38-.704.086-1.366-.133-1.648-1.087-1.414-2.418-2.922-4.398-4.988zm6.324-16.32c.26.255.557.303.76.303h.002c.204 0 .5-.048.76-.302 2.33-2.265 3.58-4.905 3.856-5.64.04-.107.08-.23.08-.4 0-.586-.487-1.005-.998-1.005-.422 0-1.622.124-3.692.124h-.014c-2.07 0-3.27-.124-3.69-.124-.512 0-1 .418-1 1.005 0 .17.04.293.08.4.275.735 1.526 3.376 3.856 5.64z" fill="#FFF"/>
  <g>
    <path fill="none" d="M706.197-324.9h22.635"/>
    <path fill="#3774B1" d="M706.197-327.9h22.635v6h-22.635z"/>
    <path fill="none" d="M706.197-309.398h21.017"/>
    <path fill="#3774B1" d="M706.197-312.398h21.017v6h-21.017z"/>
    <path fill="none" d="M706.197-293.898h26.458"/>
    <path fill="#3774B1" d="M706.197-296.898h26.458v6h-26.458z"/>
    <path fill="#FBBA1B" d="M737.77-296.898h9.623v6h-9.622z"/>
    <path fill="none" d="M706.197-278.398h28.97"/>
    <path fill="#3774B1" d="M706.197-281.398h28.97v6h-28.97z"/>
    <path fill="none" d="M696.747-324.9h6.25"/>
    <path fill="#3774B1" d="M696.747-327.9h6.25v6h-6.25z"/>
    <path fill="none" d="M696.747-309.398h6.25"/>
    <path fill="#3774B1" d="M696.747-312.398h6.25v6h-6.25z"/>
    <path fill="none" d="M696.747-293.898h6.25"/>
    <path fill="#3774B1" d="M696.747-296.898h6.25v6h-6.25z"/>
    <path fill="none" d="M696.747-278.398h6.25"/>
    <path fill="#3774B1" d="M696.747-281.398h6.25v6h-6.25z"/>
    <path opacity=".2" fill="#205182" d="M754.846-327.9h6.25v6h-6.25zM754.846-312.398h6.25v6h-6.25zM754.846-296.898h6.25v6h-6.25zM754.846-281.398h6.25v6h-6.25zM764.23-327.9h17.968v6h-17.97zM764.23-312.398h17.968v6h-17.97zM764.23-296.898h17.968v6h-17.97zM764.23-281.398h17.968v6h-17.97z"/>
    <circle cx="700.892" cy="-344.981" r="6" fill="#1C4F83"/>
    <path opacity=".2" fill="#1F5180" d="M710.398-346.982h25v4h-25z"/>
    <circle cx="741.967" cy="-278.218" r="4" fill="#E12E26"/>
  </g>
  <g>
    <g opacity=".2" fill="#1F5180">
      <path d="M762.52-406.89h-47.898c-6.527 0-11.817 5.29-11.817 11.817v41.36c0 6.528 5.29 11.818 11.817 11.818h13.044c-.157 2.82-.69 7.817-2.417 14.475 8.418 0 15.248-9.69 18.107-14.475h19.164c6.528 0 11.818-5.29 11.818-11.817v-41.36c0-6.527-5.29-11.818-11.817-11.818z"/>
      <path d="M762.52-406.89c6.528 0 11.818 5.29 11.818 11.818v41.36c0 6.528-5.29 11.82-11.817 11.82h-19.163c-2.86 4.785-9.69 14.474-18.108 14.474 1.726-6.658 2.26-11.655 2.416-14.475h-13.044c-6.527 0-11.817-5.29-11.817-11.818v-41.362c0-6.527 5.29-11.818 11.817-11.818h47.9m0-4h-47.9c-8.722 0-15.817 7.096-15.817 15.818v41.36c0 8.723 7.096 15.82 15.817 15.82h8.642c-.34 2.55-.917 5.728-1.887 9.47-.31 1.198-.05 2.473.708 3.452s1.926 1.552 3.164 1.552c9.184 0 16.318-8.337 20.324-14.475h16.948c8.722 0 15.817-7.096 15.817-15.818v-41.362c-.002-8.722-7.097-15.818-15.82-15.818z"/>
      <circle cx="737.955" cy="-373.781" r="23.464"/>
      <path d="M729.84-378.333h2.515v13.614h-2.516z"/>
      <path d="M731.097-377.332c-2.42 0-4.39-1.97-4.39-4.39s1.97-4.39 4.39-4.39 4.39 1.97 4.39 4.39-1.97 4.39-4.39 4.39zm0-6.456c-1.14 0-2.066.927-2.066 2.066s.928 2.066 2.067 2.066 2.066-.927 2.066-2.066-.927-2.066-2.066-2.066zM746.72-364.098c-2.42 0-4.39-1.97-4.39-4.39s1.97-4.39 4.39-4.39 4.39 1.97 4.39 4.39-1.97 4.39-4.39 4.39zm0-6.455c-1.14 0-2.066.927-2.066 2.066s.927 2.065 2.066 2.065c1.14 0 2.066-.927 2.066-2.065 0-1.14-.927-2.066-2.066-2.066zM747.882-377.004h-2.324c0-1.998-1.625-3.623-3.623-3.623v-2.324c3.28 0 5.947 2.667 5.947 5.946z"/>
      <path d="M745.558-377.004h2.324v5.29h-2.324zM740.156-377.903l-3.813-3.814 3.813-3.813 1.233 1.232-2.582 2.58 2.58 2.582"/>
      <path d="M738.15-382.95h3.785v2.323h-3.784z"/>
    </g>
    <path d="M762.52-408.89h-47.898c-6.527 0-11.817 5.29-11.817 11.817v41.36c0 6.528 5.29 11.818 11.817 11.818h13.044c-.157 2.82-.69 7.817-2.417 14.475 8.418 0 15.248-9.69 18.107-14.475h19.164c6.528 0 11.818-5.29 11.818-11.817v-41.36c0-6.527-5.29-11.818-11.817-11.818z" fill="#F4F5F5"/>
    <path d="M762.52-408.89c6.528 0 11.818 5.29 11.818 11.818v41.36c0 6.528-5.29 11.82-11.817 11.82h-19.163c-2.86 4.785-9.69 14.474-18.108 14.474 1.726-6.658 2.26-11.655 2.416-14.475h-13.044c-6.527 0-11.817-5.29-11.817-11.818v-41.362c0-6.527 5.29-11.818 11.817-11.818h47.9m0-4h-47.9c-8.722 0-15.817 7.096-15.817 15.818v41.36c0 8.723 7.096 15.82 15.817 15.82h8.642c-.34 2.55-.917 5.728-1.887 9.47-.31 1.198-.05 2.473.708 3.452s1.926 1.552 3.164 1.552c9.184 0 16.318-8.337 20.324-14.475h16.948c8.722 0 15.817-7.096 15.817-15.818v-41.362c-.002-8.722-7.097-15.818-15.82-15.818z" fill="#1F5180"/>
    <circle cx="737.955" cy="-375.781" r="23.464" fill="#198843"/>
    <path fill="#FFF" d="M729.84-380.333h2.515v13.614h-2.516z"/>
    <path d="M731.097-379.332c-2.42 0-4.39-1.97-4.39-4.39s1.97-4.39 4.39-4.39 4.39 1.97 4.39 4.39-1.97 4.39-4.39 4.39zm0-6.456c-1.14 0-2.066.927-2.066 2.066s.928 2.066 2.067 2.066 2.066-.927 2.066-2.066-.927-2.066-2.066-2.066zM746.72-366.098c-2.42 0-4.39-1.97-4.39-4.39s1.97-4.39 4.39-4.39 4.39 1.97 4.39 4.39-1.97 4.39-4.39 4.39zm0-6.455c-1.14 0-2.066.927-2.066 2.066s.927 2.065 2.066 2.065c1.14 0 2.066-.927 2.066-2.065 0-1.14-.927-2.066-2.066-2.066zM747.882-379.004h-2.324c0-1.998-1.625-3.623-3.623-3.623v-2.324c3.28 0 5.947 2.667 5.947 5.946z" fill="#FFF"/>
    <path fill="#FFF" d="M745.558-379.004h2.324v5.29h-2.324zM740.156-379.903l-3.813-3.814 3.813-3.813 1.233 1.232-2.582 2.58 2.58 2.582"/>
    <path fill="#FFF" d="M738.15-384.95h3.785v2.323h-3.784z"/>
  </g>
</svg>
