<?xml version="1.0" encoding="UTF-8" standalone="no"?>
<svg width="108px" height="31px" viewBox="0 0 108 31" version="1.1" xmlns="http://www.w3.org/2000/svg" xmlns:xlink="http://www.w3.org/1999/xlink" xmlns:sketch="http://www.bohemiancoding.com/sketch/ns">
    <!-- Generator: Sketch 3.4 (15588) - http://www.bohemiancoding.com/sketch -->
    <title>Arrow dotted left</title>
    <desc>Created with Sketch.</desc>
    <defs></defs>
    <g id="Flow-1-Bitbucket-adds-JIRA" stroke="none" stroke-width="1" fill="none" fill-rule="evenodd" sketch:type="MSPage">
        <g id="Easy-Connect-1.6.3-Alt" sketch:type="MSArtboardGroup" transform="translate(-573.000000, -342.000000)">
            <g id="Focus-600px-Copy" sketch:type="MSLayerGroup" transform="translate(340.000000, 136.000000)">
                <g id="diagram-copy" transform="translate(199.000000, 100.000000)" sketch:type="MSShapeGroup">
                    <g id="Imported-Layers" transform="translate(34.000000, 0.000000)">
                        <g id="Arrow-dotted-left" transform="translate(0.000000, 105.000000)">
                            <path d="M105.477,4.046 C105.477,4.046 91.579,29.827 55.309,29.997 C23.494,30.146 5.882,3.857 5.882,3.857" id="Stroke-3" stroke="#EB8B3C" stroke-width="4" stroke-linecap="round" stroke-dasharray="6,12"></path>
                            <path d="M22.656,5.382 L21.924,8.5 L6.568,4.876 L4.075,20.458 L0.913,19.949 L3.953,0.972 L22.656,5.382" id="Fill-4" fill="#EB8B3C"></path>
                        </g>
                    </g>
                </g>
            </g>
        </g>
    </g>
</svg>